%YAML 1.1
%TAG !u! tag:unity3d.com,2011:
--- !u!114 &11400000
MonoBehaviour:
  m_ObjectHideFlags: 0
  m_CorrespondingSourceObject: {fileID: 0}
  m_PrefabInstance: {fileID: 0}
  m_PrefabAsset: {fileID: 0}
  m_GameObject: {fileID: 0}
  m_Enabled: 1
  m_EditorHideFlags: 0
  m_Script: {fileID: 11500000, guid: 5addc1036388bd6449c888b28ace6609, type: 3}
  m_Name: Attack
  m_EditorClassIdentifier: 
  _HiddenIdentifier: 8e909dca-58aa-40a1-840f-770894ce2672
  sprite: {fileID: 2587855155107634561, guid: df92a124729394aa8ba93b64364af184, type: 3}
  NegativesAllowed: 0
