%YAML 1.1
%TAG !u! tag:unity3d.com,2011:
--- !u!114 &11400000
MonoBehaviour:
  m_ObjectHideFlags: 0
  m_CorrespondingSourceObject: {fileID: 0}
  m_PrefabInstance: {fileID: 0}
  m_PrefabAsset: {fileID: 0}
  m_GameObject: {fileID: 0}
  m_Enabled: 1
  m_EditorHideFlags: 0
  m_Script: {fileID: 11500000, guid: 67f7fe4f64418984787e56061c507301, type: 3}
  m_Name: Card Pool
  m_EditorClassIdentifier: 
  _HiddenIdentifier: aa7b69c4-7534-40f6-8a70-ea65bde95054
  DesiredCapacity: 5
  IncreasedCapacityPerFrame: 1
  prefab: {fileID: 8522051359300015849, guid: 2e6c85666aa32b145be1aa81b00165d0, type: 3}
