%YAML 1.1
%TAG !u! tag:unity3d.com,2011:
--- !u!114 &11400000
MonoBehaviour:
  m_ObjectHideFlags: 0
  m_CorrespondingSourceObject: {fileID: 0}
  m_PrefabInstance: {fileID: 0}
  m_PrefabAsset: {fileID: 0}
  m_GameObject: {fileID: 0}
  m_Enabled: 1
  m_EditorHideFlags: 0
  m_Script: {fileID: 11500000, guid: 1b1c879a8844541c0bef09dc34956ec4, type: 3}
  m_Name: 2 kobolds
  m_EditorClassIdentifier: 
  _HiddenIdentifier: 220f466b-c2ba-4e11-97f6-ea80946af3c0
  Monsters:
  - {fileID: 11400000, guid: ef1edd726787c493a8fdf6319b6e09f9, type: 2}
  - {fileID: 11400000, guid: ef1edd726787c493a8fdf6319b6e09f9, type: 2}
