%YAML 1.1
%TAG !u! tag:unity3d.com,2011:
--- !u!114 &11400000
MonoBehaviour:
  m_ObjectHideFlags: 0
  m_CorrespondingSourceObject: {fileID: 0}
  m_PrefabInstance: {fileID: 0}
  m_PrefabAsset: {fileID: 0}
  m_GameObject: {fileID: 0}
  m_Enabled: 1
  m_EditorHideFlags: 0
  m_Script: {fileID: 11500000, guid: 96e7c049870114a9aaff4bb13127218e, type: 3}
  m_Name: Groblin
  m_EditorClassIdentifier: 
  _HiddenIdentifier: 8715e2ee-a116-42e9-82ad-2d2231b86619
  appearance: {fileID: 0}
  MaxHP: 0
  PossibleActions:
  - {fileID: 11400000, guid: d7d03fcf9e53ceb43957e8beed69cf35, type: 2}
  - {fileID: 11400000, guid: cbb82d782b5bf9d43af9df7969ecb057, type: 2}
  - {fileID: 11400000, guid: f0e158f0a68d71a4ca990ded29a6e99a, type: 2}
